proyecto nibbler/uP.vcd
$date
	Fri Nov 20 16:36:30 2020
$end
$version
	Icarus Verilog
$end
$timescale
	1ps
$end
$scope module testbench $end
$var wire 4 ! data_bus [0:3] $end
$var wire 1 " z_flag $end
$var wire 8 # program_byte [0:7] $end
$var wire 1 $ phase $end
$var wire 4 % oprnd [0:3] $end
$var wire 4 & instr [0:3] $end
$var wire 1 ' c_flag $end
$var wire 12 ( address_RAM [0:11] $end
$var wire 4 ) accu [0:3] $end
$var wire 12 * PC [0:11] $end
$var wire 4 + FF_out [0:3] $end
$var reg 1 , clk $end
$var reg 4 - pushbuttons [0:3] $end
$var reg 1 . reset $end
$scope module i_uP $end
$var wire 1 / clk $end
$var wire 1 , clock $end
$var wire 4 0 data_bus [3:0] $end
$var wire 1 1 f_phase $end
$var wire 4 2 pushbuttons [3:0] $end
$var wire 1 . reset $end
$var wire 1 " z_flag $end
$var wire 1 3 z $end
$var wire 1 4 weRAM $end
$var wire 8 5 program_byte [7:0] $end
$var wire 1 $ phase $end
$var wire 4 6 oprnd [3:0] $end
$var wire 1 7 oeOprnd $end
$var wire 1 8 oeIN $end
$var wire 1 9 oeALU $end
$var wire 1 : loadPC $end
$var wire 1 ; loadOut $end
$var wire 1 < loadFlags $end
$var wire 1 = loadA $end
$var wire 4 > instr [3:0] $end
$var wire 1 ? incPC $end
$var wire 1 @ csRAM $end
$var wire 13 A control [12:0] $end
$var wire 1 ' c_flag $end
$var wire 1 B c $end
$var wire 12 C address_RAM [11:0] $end
$var wire 4 D accu [3:0] $end
$var wire 3 E Sel [2:0] $end
$var wire 12 F PC [11:0] $end
$var wire 4 G FF_out [3:0] $end
$scope module i_RAM $end
$var wire 12 H address [11:0] $end
$var wire 1 @ csRAM $end
$var wire 4 I data [3:0] $end
$var wire 1 4 weRAM $end
$var reg 4 J salida [3:0] $end
$upscope $end
$scope module i_control $end
$var wire 1 , clk $end
$var wire 1 < enable_flags $end
$var wire 1 K enable_phase $end
$var wire 1 . reset $end
$var wire 1 3 z $end
$var wire 1 $ phase $end
$var wire 4 L instr [3:0] $end
$var wire 1 " flag_z $end
$var wire 1 ' flag_c $end
$var wire 13 M control [12:0] $end
$var wire 1 B c $end
$var wire 2 N Q [1:0] $end
$scope module i_decode $end
$var wire 1 O c $end
$var wire 1 P z $end
$var wire 1 $ phase $end
$var wire 4 Q instr [3:0] $end
$var wire 7 R algo [6:0] $end
$var reg 13 S control [12:0] $end
$upscope $end
$scope module i_flags $end
$var wire 1 , clk $end
$var wire 1 < enable $end
$var wire 1 . reset $end
$var wire 1 3 z $end
$var wire 1 B c $end
$var wire 2 T Q [1:0] $end
$scope module i_flipflopDc $end
$var wire 1 , CLK $end
$var wire 1 < enable $end
$var wire 1 . reset $end
$var wire 1 B D $end
$var reg 1 U Q $end
$upscope $end
$scope module i_flipflopDz $end
$var wire 1 , CLK $end
$var wire 1 < enable $end
$var wire 1 . reset $end
$var wire 1 3 D $end
$var reg 1 V Q $end
$upscope $end
$upscope $end
$scope module i_phase $end
$var wire 1 , clk $end
$var wire 1 W d $end
$var wire 1 K enable $end
$var wire 1 . reset $end
$var wire 1 $ q $end
$scope module f1 $end
$var wire 1 , CLK $end
$var wire 1 W D $end
$var wire 1 K enable $end
$var wire 1 . reset $end
$var reg 1 $ Q $end
$upscope $end
$upscope $end
$upscope $end
$scope module i_ej1_2 $end
$var wire 3 X Sel [2:0] $end
$var wire 1 = accu_en $end
$var wire 1 7 bus1_en $end
$var wire 1 9 bus2_en $end
$var wire 1 , clk $end
$var wire 1 1 fetch_en $end
$var wire 1 : load $end
$var wire 4 Y out [3:0] $end
$var wire 4 Z out_bus1 [3:0] $end
$var wire 1 ? pc_en $end
$var wire 1 . reset $end
$var wire 1 . reset_accu $end
$var wire 1 3 z $end
$var wire 4 [ y [3:0] $end
$var wire 4 \ out_alu [3:0] $end
$var wire 4 ] out_accu [3:0] $end
$var wire 4 ^ oprnd [3:0] $end
$var wire 12 _ loadbits [11:0] $end
$var wire 4 ` instr [3:0] $end
$var wire 8 a data [7:0] $end
$var wire 1 B c $end
$var wire 12 b address [11:0] $end
$scope module i_ROM $end
$var wire 12 c data [11:0] $end
$var wire 12 d adress [11:0] $end
$upscope $end
$scope module i_accumulator $end
$var wire 1 , clk $end
$var wire 1 = enable $end
$var wire 1 . reset $end
$var wire 4 e out [3:0] $end
$var wire 4 f in [3:0] $end
$scope module i_flipflopD1 $end
$var wire 1 , CLK $end
$var wire 1 g D $end
$var wire 1 = enable $end
$var wire 1 . reset $end
$var reg 1 h Q $end
$upscope $end
$scope module i_flipflopD2 $end
$var wire 1 , CLK $end
$var wire 1 i D $end
$var wire 1 = enable $end
$var wire 1 . reset $end
$var reg 1 j Q $end
$upscope $end
$scope module i_flipflopD3 $end
$var wire 1 , CLK $end
$var wire 1 k D $end
$var wire 1 = enable $end
$var wire 1 . reset $end
$var reg 1 l Q $end
$upscope $end
$scope module i_flipflopD4 $end
$var wire 1 , CLK $end
$var wire 1 m D $end
$var wire 1 = enable $end
$var wire 1 . reset $end
$var reg 1 n Q $end
$upscope $end
$upscope $end
$scope module i_alu $end
$var wire 3 o Sel [2:0] $end
$var wire 4 p a [3:0] $end
$var wire 4 q b [3:0] $end
$var wire 1 3 z $end
$var reg 1 B c $end
$var reg 4 r out [3:0] $end
$var reg 5 s out1 [4:0] $end
$upscope $end
$scope module i_fetch $end
$var wire 1 , clk $end
$var wire 1 1 enable $end
$var wire 8 t prog_byte [7:0] $end
$var wire 1 . reset $end
$var wire 4 u oprnd [3:0] $end
$var wire 4 v instr [3:0] $end
$scope module ff1 $end
$var wire 1 , CLK $end
$var wire 1 w D $end
$var wire 1 1 enable $end
$var wire 1 . reset $end
$var reg 1 x Q $end
$upscope $end
$scope module ff2 $end
$var wire 1 , CLK $end
$var wire 1 y D $end
$var wire 1 1 enable $end
$var wire 1 . reset $end
$var reg 1 z Q $end
$upscope $end
$scope module ff3 $end
$var wire 1 , CLK $end
$var wire 1 { D $end
$var wire 1 1 enable $end
$var wire 1 . reset $end
$var reg 1 | Q $end
$upscope $end
$scope module ff4 $end
$var wire 1 , CLK $end
$var wire 1 } D $end
$var wire 1 1 enable $end
$var wire 1 . reset $end
$var reg 1 ~ Q $end
$upscope $end
$scope module ff5 $end
$var wire 1 , CLK $end
$var wire 1 !" D $end
$var wire 1 1 enable $end
$var wire 1 . reset $end
$var reg 1 "" Q $end
$upscope $end
$scope module ff6 $end
$var wire 1 , CLK $end
$var wire 1 #" D $end
$var wire 1 1 enable $end
$var wire 1 . reset $end
$var reg 1 $" Q $end
$upscope $end
$scope module ff7 $end
$var wire 1 , CLK $end
$var wire 1 %" D $end
$var wire 1 1 enable $end
$var wire 1 . reset $end
$var reg 1 &" Q $end
$upscope $end
$scope module ff8 $end
$var wire 1 , CLK $end
$var wire 1 '" D $end
$var wire 1 1 enable $end
$var wire 1 . reset $end
$var reg 1 (" Q $end
$upscope $end
$upscope $end
$scope module i_pc_counter $end
$var wire 1 , clk $end
$var wire 1 ? enable $end
$var wire 1 : load $end
$var wire 12 )" loadbits [11:0] $end
$var wire 1 . reset $end
$var reg 12 *" count [11:0] $end
$upscope $end
$scope module i_tristate_buffer1 $end
$var wire 4 +" a [3:0] $end
$var wire 1 7 enable $end
$var wire 4 ," y [3:0] $end
$upscope $end
$scope module i_tristate_buffer2 $end
$var wire 4 -" a [3:0] $end
$var wire 1 9 enable $end
$var wire 4 ." y [3:0] $end
$upscope $end
$upscope $end
$scope module i_flipflopD4 $end
$var wire 1 / clk $end
$var wire 1 ; enable $end
$var wire 4 /" in [3:0] $end
$var wire 1 . reset $end
$var wire 4 0" out [3:0] $end
$scope module i_flipflopD1 $end
$var wire 1 / CLK $end
$var wire 1 1" D $end
$var wire 1 ; enable $end
$var wire 1 . reset $end
$var reg 1 2" Q $end
$upscope $end
$scope module i_flipflopD2 $end
$var wire 1 / CLK $end
$var wire 1 3" D $end
$var wire 1 ; enable $end
$var wire 1 . reset $end
$var reg 1 4" Q $end
$upscope $end
$scope module i_flipflopD3 $end
$var wire 1 / CLK $end
$var wire 1 5" D $end
$var wire 1 ; enable $end
$var wire 1 . reset $end
$var reg 1 6" Q $end
$upscope $end
$scope module i_flipflopD4 $end
$var wire 1 / CLK $end
$var wire 1 7" D $end
$var wire 1 ; enable $end
$var wire 1 . reset $end
$var reg 1 8" Q $end
$upscope $end
$upscope $end
$scope module i_tristate_buffer $end
$var wire 4 9" a [3:0] $end
$var wire 1 8 enable $end
$var wire 4 :" y [3:0] $end
$upscope $end
$upscope $end
$upscope $end
$enddefinitions $end
#0
$dumpvars
bx :"
bx 9"
x8"
x7"
x6"
x5"
x4"
x3"
x2"
x1"
bx 0"
bx /"
bx ."
bx -"
bx ,"
bx +"
bx *"
bx )"
x("
x'"
x&"
x%"
x$"
x#"
x""
x!"
x~
x}
x|
x{
xz
xy
xx
xw
bx v
bx u
bx t
bx s
bx r
bx q
bx p
bx o
xn
xm
xl
xk
xj
xi
xh
xg
bx f
bx e
bx d
bx c
bx b
bx a
bx `
bx _
bx ^
bx ]
bx \
bx [
bx Z
bx Y
bx X
xW
xV
xU
bx T
bx S
bx R
bx Q
xP
xO
bx N
bx M
bx L
1K
bx J
bx I
bx H
bx G
bx F
bx E
bx D
bx C
xB
bx A
x@
x?
bx >
x=
x<
x;
x:
x9
x8
x7
bx 6
bx 5
x4
x3
bx 2
x1
bx 0
z/
x.
bx -
0,
bx +
bx *
bx )
bx (
x'
bx &
bx %
x$
bx #
x"
bx !
$end
#5
13
01"
03"
05"
07"
b0 !
b0 0
b0 I
b0 Y
b0 Z
b0 q
b0 ,"
b0 /"
b0 :"
b0 [
b0 ."
0m
0k
0i
0g
0;
07
08
19
04
0@
b0 E
b0 X
b0 o
0<
0=
0:
1?
0w
1y
0{
0}
1!"
0#"
1%"
0'"
0O
0'
0P
0"
1W
11
0B
b0 \
b0 f
b0 r
b0 -"
b0 s
b1000000001000 A
b1000000001000 M
b1000000001000 S
b1001010 #
b1001010 5
b1001010 a
b1001010 t
0U
b0 N
b0 T
0V
0$
0h
0j
0l
b0 )
b0 D
b0 ]
b0 e
b0 p
0n
0x
0z
0|
b0 R
b0 &
b0 >
b0 L
b0 Q
b0 `
b0 v
0~
0""
0$"
0&"
b1001010 _
b1001010 )"
b1001010 (
b1001010 C
b1001010 H
b0 %
b0 6
b0 ^
b0 u
b0 +"
0("
b1001010 c
b0 *
b0 F
b0 b
b0 d
b0 *"
02"
04"
06"
b0 +
b0 G
b0 0"
08"
1,
1.
#10
0,
b1111 -
b1111 2
b1111 9"
0.
#15
1P
1"
b10 N
b10 T
1V
03
1m
1i
b1010 \
b1010 f
b1010 r
b1010 -"
b1010 s
13"
17"
b1010 !
b1010 0
b1010 I
b1010 Y
b1010 Z
b1010 q
b1010 ,"
b1010 /"
b1010 :"
bz [
bz ."
17
09
b10 E
b10 X
b10 o
1<
1=
0?
1w
1}
1#"
1'"
0W
01
b11010000010 A
b11010000010 M
b11010000010 S
b11011111 #
b11011111 5
b11011111 a
b11011111 t
1$
1&"
b101011011111 _
b101011011111 )"
b101011011111 (
b101011011111 C
b101011011111 H
b1010 %
b1010 6
b1010 ^
b1010 u
b1010 +"
1""
b100011 R
b100 &
b100 >
b100 L
b100 Q
b100 `
b100 v
1z
b11011111 c
b1 *
b1 F
b1 b
b1 d
b1 *"
1,
#20
0,
#25
1x
b1101 &
b1101 >
b1101 L
b1101 Q
b1101 `
b1101 v
1~
1$"
b111111011111 _
b111111011111 )"
b111111011111 (
b111111011111 C
b111111011111 H
b1111 %
b1111 6
b1111 ^
b1111 u
b1111 +"
1("
b1010 [
b1010 ."
07
19
b0 E
b0 X
b0 o
0<
0=
1?
0P
0"
1W
b1000000001000 A
b1000000001000 M
b1000000001000 S
11
b0 N
b0 T
0V
b1101000 R
0$
1n
b1010 )
b1010 D
b1010 ]
b1010 e
b1010 p
1j
1,
#30
0,
#35
14"
b1010 +
b1010 G
b1010 0"
18"
1;
0?
0y
1{
0}
0#"
0'"
0W
b1001 A
b1001 M
b1001 S
01
b111110101010 _
b111110101010 )"
b111110101010 (
b111110101010 C
b111110101010 H
b10101010 #
b10101010 5
b10101010 a
b10101010 t
b1101001 R
1$
b10101010 c
b10 *
b10 F
b10 b
b10 d
b10 *"
1,
#40
0,
#45
0z
1|
b1010 &
b1010 >
b1010 L
b1010 Q
b1010 `
b1010 v
0~
0$"
b101010101010 _
b101010101010 )"
b101010101010 (
b101010101010 C
b101010101010 H
b1010 %
b1010 6
b1010 ^
b1010 u
b1010 +"
0("
0;
1?
1W
b1000000001000 A
b1000000001000 M
b1000000001000 S
11
b1010000 R
0$
1,
#50
0,
#55
0m
1k
0i
b1010 !
b1010 0
b1010 I
b1010 Y
b1010 Z
b1010 q
b1010 ,"
b1010 /"
b1010 :"
bz [
bz ."
1B
b100 \
b100 f
b100 r
b100 -"
b10100 s
17
09
b11 E
b11 X
b11 o
1<
1=
0?
0w
0W
b11011000010 A
b11011000010 M
b11011000010 S
01
b101000101010 _
b101000101010 )"
b101000101010 (
b101000101010 C
b101000101010 H
b101010 #
b101010 5
b101010 a
b101010 t
b1010001 R
1$
b101010 c
b11 *
b11 F
b11 b
b11 d
b11 *"
1,
#60
0,
#65
b10 &
b10 >
b10 L
b10 Q
b10 `
b10 v
0x
03"
15"
07"
b100 !
b100 0
b100 I
b100 Y
b100 Z
b100 q
b100 ,"
b100 /"
b100 :"
b100 [
b100 ."
07
19
b0 E
b0 X
b0 o
0<
0=
1?
0m
0i
1O
1'
1W
b1000000001000 A
b1000000001000 M
b1000000001000 S
11
0B
b100 \
b100 f
b100 r
b100 -"
b100 s
b1 N
b1 T
1U
b10100 R
0$
0n
1l
b100 )
b100 D
b100 ]
b100 e
b100 p
0j
1,
#70
0,
#75
0O
0'
b0 N
b0 T
0U
1B
13"
05"
17"
b1010 !
b1010 0
b1010 I
b1010 Y
b1010 Z
b1010 q
b1010 ,"
b1010 /"
b1010 :"
bz [
bz ."
b11010 s
17
09
b1 E
b1 X
b1 o
1<
0?
1#"
1'"
0W
b1001000010 A
b1001000010 M
b1001000010 S
01
b101000101111 _
b101000101111 )"
b101000101111 (
b101000101111 C
b101000101111 H
b101111 #
b101111 5
b101111 a
b101111 t
b10001 R
1$
b101111 c
b100 *
b100 F
b100 b
b100 d
b100 *"
1,
#80
0,
#85
1$"
b111100101111 _
b111100101111 )"
b111100101111 (
b111100101111 C
b111100101111 H
b1111 %
b1111 6
b1111 ^
b1111 u
b1111 +"
1("
03"
15"
07"
b100 !
b100 0
b100 I
b100 Y
b100 Z
b100 q
b100 ,"
b100 /"
b100 :"
b100 [
b100 ."
0B
b100 s
07
19
b0 E
b0 X
b0 o
0<
1?
1O
1'
1W
b1000000001000 A
b1000000001000 M
b1000000001000 S
11
b1 N
b1 T
1U
b10100 R
0$
1,
#90
0,
#95
0O
0'
b0 N
b0 T
0U
03
1B
11"
13"
17"
b1111 !
b1111 0
b1111 I
b1111 Y
b1111 Z
b1111 q
b1111 ,"
b1111 /"
b1111 :"
bz [
bz ."
b10101 s
17
09
b1 E
b1 X
b1 o
1<
0?
1y
0{
0W
b1001000010 A
b1001000010 M
b1001000010 S
01
b111101001111 _
b111101001111 )"
b111101001111 (
b111101001111 C
b111101001111 H
b1001111 #
b1001111 5
b1001111 a
b1001111 t
b10001 R
1$
b1001111 c
b101 *
b101 F
b101 b
b101 d
b101 *"
1,
#100
0,
#105
1z
b100 &
b100 >
b100 L
b100 Q
b100 `
b100 v
0|
01"
03"
07"
b100 !
b100 0
b100 I
b100 Y
b100 Z
b100 q
b100 ,"
b100 /"
b100 :"
b100 [
b100 ."
0B
b100 s
07
19
b0 E
b0 X
b0 o
0<
1?
1O
1'
1W
b1000000001000 A
b1000000001000 M
b1000000001000 S
11
b1 N
b1 T
1U
b100100 R
0$
1,
#110
0,
#115
0O
0'
b0 N
b0 T
0U
1m
1i
1g
b1111 \
b1111 f
b1111 r
b1111 -"
b1111 s
11"
13"
17"
b1111 !
b1111 0
b1111 I
b1111 Y
b1111 Z
b1111 q
b1111 ,"
b1111 /"
b1111 :"
bz [
bz ."
17
09
b10 E
b10 X
b10 o
1<
1=
0?
1{
1}
0!"
0#"
0%"
0'"
0W
b11010000010 A
b11010000010 M
b11010000010 S
01
b111101110000 _
b111101110000 )"
b111101110000 (
b111101110000 C
b111101110000 H
b1110000 #
b1110000 5
b1110000 a
b1110000 t
b100001 R
1$
b1110000 c
b110 *
b110 F
b110 b
b110 d
b110 *"
1,
#120
0,
#125
1|
b111 &
b111 >
b111 L
b111 Q
b111 `
b111 v
1~
0""
0$"
0&"
b1110000 _
b1110000 )"
b1110000 (
b1110000 C
b1110000 H
b0 %
b0 6
b0 ^
b0 u
b0 +"
0("
b1111 [
b1111 ."
07
19
b0 E
b0 X
b0 o
0<
0=
1?
1W
b1000000001000 A
b1000000001000 M
b1000000001000 S
11
b111000 R
0$
1n
1j
b1111 )
b1111 D
b1111 ]
b1111 e
b1111 p
1h
1,
#130
0,
#135
14
1@
0y
0{
0}
0W
b1000000111000 A
b1000000111000 M
b1000000111000 S
01
b0 _
b0 )"
b0 (
b0 C
b0 H
b0 #
b0 5
b0 a
b0 t
b111001 R
1$
b0 c
b111 *
b111 F
b111 b
b111 d
b111 *"
1,
#140
0,
#145
0|
b100 &
b100 >
b100 L
b100 Q
b100 `
b100 v
0~
1$"
b101 %
b101 6
b101 ^
b101 u
b101 +"
1("
04
0@
1y
1#"
1'"
1W
b1000000001000 A
b1000000001000 M
b1000000001000 S
11
b10101000101 _
b10101000101 )"
b10101000101 (
b10101000101 C
b10101000101 H
b1000101 #
b1000101 5
b1000101 a
b1000101 t
b100000 R
0$
b1000101 c
b1000 *
b1000 F
b1000 b
b1000 d
b1000 *"
1,
#150
0,
#155
0m
0i
b101 \
b101 f
b101 r
b101 -"
b101 s
03"
07"
b101 !
b101 0
b101 I
b101 Y
b101 Z
b101 q
b101 ,"
b101 /"
b101 :"
bz [
bz ."
17
09
b10 E
b10 X
b10 o
1<
1=
0?
1w
0y
1{
1}
0#"
0'"
0W
b11010000010 A
b11010000010 M
b11010000010 S
01
b10110110000 _
b10110110000 )"
b10110110000 (
b10110110000 C
b10110110000 H
b10110000 #
b10110000 5
b10110000 a
b10110000 t
b100001 R
1$
b10110000 c
b1001 *
b1001 F
b1001 b
b1001 d
b1001 *"
1,
#160
0,
#165
1x
0z
1|
b1011 &
b1011 >
b1011 L
b1011 Q
b1011 `
b1011 v
1~
0$"
b10110000 _
b10110000 )"
b10110000 (
b10110000 C
b10110000 H
b0 %
b0 6
b0 ^
b0 u
b0 +"
0("
b101 [
b101 ."
07
19
b0 E
b0 X
b0 o
0<
0=
1?
1W
b1000000001000 A
b1000000001000 M
b1000000001000 S
11
b1011000 R
0$
0n
b101 )
b101 D
b101 ]
b101 e
b101 p
0j
1,
#170
0,
#175
b1111 J
03
1B
11"
13"
15"
17"
0m
1k
0i
0g
b1111 !
b1111 0
b1111 I
b1111 Y
b1111 Z
b1111 q
b1111 ,"
b1111 /"
b1111 :"
bz [
bz ."
b100 \
b100 f
b100 r
b100 -"
b10100 s
09
1@
b11 E
b11 X
b11 o
1<
1=
0w
0{
0}
0W
b1011011100000 A
b1011011100000 M
b1011011100000 S
01
b0 _
b0 )"
b0 (
b0 C
b0 H
b0 #
b0 5
b0 a
b0 t
b1011001 R
1$
b0 c
b1010 *
b1010 F
b1010 b
b1010 d
b1010 *"
1,
#180
0,
#185
0x
0|
b0 &
b0 >
b0 L
b0 Q
b0 `
b0 v
0~
03
01"
03"
07"
b100 !
b100 0
b100 I
b100 Y
b100 Z
b100 q
b100 ,"
b100 /"
b100 :"
b100 [
b100 ."
0B
19
0@
b0 E
b0 X
b0 o
0<
0=
1k
0i
0g
1O
1'
1W
b1000000001000 A
b1000000001000 M
b1000000001000 S
11
b100 \
b100 f
b100 r
b100 -"
b100 s
b1 N
b1 T
1U
b100 R
0$
b100 )
b100 D
b100 ]
b100 e
b100 p
0h
b1011 *
b1011 F
b1011 b
b1011 d
b1011 *"
1,
#190
0,
#195
1:
0?
1w
1y
1{
1}
1!"
1#"
1%"
1'"
0W
b100000001000 A
b100000001000 M
b100000001000 S
01
b11111111 _
b11111111 )"
b11111111 (
b11111111 C
b11111111 H
b11111111 #
b11111111 5
b11111111 a
b11111111 t
b101 R
1$
b11111111 c
b1100 *
b1100 F
b1100 b
b1100 d
b1100 *"
1,
#200
0,
#205
1z
b101 &
b101 >
b101 L
b101 Q
b101 `
b101 v
1~
1""
1$"
1&"
b1111 %
b1111 6
b1111 ^
b1111 u
b1111 +"
1("
0:
1?
0w
0{
1W
b1000000001000 A
b1000000001000 M
b1000000001000 S
11
b111101011111 _
b111101011111 )"
b111101011111 (
b111101011111 C
b111101011111 H
b1011111 #
b1011111 5
b1011111 a
b1011111 t
b101100 R
0$
b1011111 c
b11111111 *
b11111111 F
b11111111 b
b11111111 d
b11111111 *"
1,
#210
0,
#215
0O
0'
b0 N
b0 T
0U
1m
1i
1g
b1111 \
b1111 f
b1111 r
b1111 -"
b1111 s
11"
13"
17"
b1111 !
b1111 0
b1111 I
b1111 Y
b1111 Z
b1111 q
b1111 ,"
b1111 /"
b1111 :"
bz [
bz ."
18
09
b10 E
b10 X
b10 o
1<
1=
0?
1w
0y
1{
0}
0W
b11010000100 A
b11010000100 M
b11010000100 S
01
b111110101111 _
b111110101111 )"
b111110101111 (
b111110101111 C
b111110101111 H
b10101111 #
b10101111 5
b10101111 a
b10101111 t
b101001 R
1$
b10101111 c
b100000000 *
b100000000 F
b100000000 b
b100000000 d
b100000000 *"
1,
#220
0,
#225
1x
0z
1|
b1010 &
b1010 >
b1010 L
b1010 Q
b1010 `
b1010 v
0~
b1111 [
b1111 ."
08
19
b0 E
b0 X
b0 o
0<
0=
1?
1W
b1000000001000 A
b1000000001000 M
b1000000001000 S
11
b1010000 R
0$
1n
1j
b1111 )
b1111 D
b1111 ]
b1111 e
b1111 p
1h
1,
#230
0,
#235
0g
b1111 !
b1111 0
b1111 I
b1111 Y
b1111 Z
b1111 q
b1111 ,"
b1111 /"
b1111 :"
bz [
bz ."
1B
b1110 \
b1110 f
b1110 r
b1110 -"
b11110 s
17
09
b11 E
b11 X
b11 o
1<
1=
0?
0{
1}
0!"
0#"
0%"
0W
b11011000010 A
b11011000010 M
b11011000010 S
01
b111110010001 _
b111110010001 )"
b111110010001 (
b111110010001 C
b111110010001 H
b10010001 #
b10010001 5
b10010001 a
b10010001 t
b1010001 R
1$
b10010001 c
b100000001 *
b100000001 F
b100000001 b
b100000001 d
b100000001 *"
1,
#240
0,
#245
0|
b1001 &
b1001 >
b1001 L
b1001 Q
b1001 `
b1001 v
1~
0""
0$"
b110010001 _
b110010001 )"
b110010001 (
b110010001 C
b110010001 H
b1 %
b1 6
b1 ^
b1 u
b1 +"
0&"
01"
b1110 !
b1110 0
b1110 I
b1110 Y
b1110 Z
b1110 q
b1110 ,"
b1110 /"
b1110 :"
b1110 [
b1110 ."
0B
07
19
b0 E
b0 X
b0 o
0<
0=
1?
1i
0g
1O
1'
1W
b1000000001000 A
b1000000001000 M
b1000000001000 S
11
b1110 \
b1110 f
b1110 r
b1110 -"
b1110 s
b1 N
b1 T
1U
b1001100 R
0$
b1110 )
b1110 D
b1110 ]
b1110 e
b1110 p
0h
1,
#250
0,
#255
1:
0?
0w
0W
b100000001000 A
b100000001000 M
b100000001000 S
01
b100010001 _
b100010001 )"
b100010001 (
b100010001 C
b100010001 H
b10001 #
b10001 5
b10001 a
b10001 t
b1001101 R
1$
b10001 c
b100000010 *
b100000010 F
b100000010 b
b100000010 d
b100000010 *"
1,
#260
0,
#265
1|
b1010 &
b1010 >
b1010 L
b1010 Q
b1010 `
b1010 v
0~
1&"
b10 %
b10 6
b10 ^
b10 u
b10 +"
0("
0:
1?
1w
1{
0}
1%"
0'"
1W
b1000000001000 A
b1000000001000 M
b1000000001000 S
11
b1010100010 _
b1010100010 )"
b1010100010 (
b1010100010 C
b1010100010 H
b10100010 #
b10100010 5
b10100010 a
b10100010 t
b1010100 R
0$
b10100010 c
b100010001 *
b100010001 F
b100010001 b
b100010001 d
b100010001 *"
1,
#270
0,
#275
0O
0'
b0 N
b0 T
0U
13
0m
0k
05"
07"
0i
b10 !
b10 0
b10 I
b10 Y
b10 Z
b10 q
b10 ,"
b10 /"
b10 :"
bz [
bz ."
1B
b0 \
b0 f
b0 r
b0 -"
b10000 s
17
09
b11 E
b11 X
b11 o
1<
1=
0?
0{
0%"
1'"
0W
b11011000010 A
b11011000010 M
b11011000010 S
01
b1010000001 _
b1010000001 )"
b1010000001 (
b1010000001 C
b1010000001 H
b10000001 #
b10000001 5
b10000001 a
b10000001 t
b1010001 R
1$
b10000001 c
b100010010 *
b100010010 F
b100010010 b
b100010010 d
b100010010 *"
1,
#280
0,
#285
b1000 &
b1000 >
b1000 L
b1000 Q
b1000 `
b1000 v
0|
0&"
b110000001 _
b110000001 )"
b110000001 (
b110000001 C
b110000001 H
b1 %
b1 6
b1 ^
b1 u
b1 +"
1("
13
03"
b0 !
b0 0
b0 I
b0 Y
b0 Z
b0 q
b0 ,"
b0 /"
b0 :"
b0 [
b0 ."
07
19
b0 E
b0 X
b0 o
0<
0=
1?
0i
1P
1"
1O
1'
1W
b1000000001000 A
b1000000001000 M
b1000000001000 S
11
0B
b0 \
b0 f
b0 r
b0 -"
b0 s
1V
b11 N
b11 T
1U
b1000110 R
0$
0n
0l
b0 )
b0 D
b0 ]
b0 e
b0 p
0j
1,
#290
0,
#295
1:
0?
0w
1{
0'"
0W
b100000001000 A
b100000001000 M
b100000001000 S
01
b100100000 _
b100100000 )"
b100100000 (
b100100000 C
b100100000 H
b100000 #
b100000 5
b100000 a
b100000 t
b1000111 R
1$
b100000 c
b100010011 *
b100010011 F
b100010011 b
b100010011 d
b100010011 *"
1,
#300
0,
#305
0x
b100 &
b100 >
b100 L
b100 Q
b100 `
b100 v
1z
b0 %
b0 6
b0 ^
b0 u
b0 +"
0("
0:
1?
1y
0{
1W
b1000000001000 A
b1000000001000 M
b1000000001000 S
11
b1000000 _
b1000000 )"
b1000000 (
b1000000 C
b1000000 H
b1000000 #
b1000000 5
b1000000 a
b1000000 t
b100110 R
0$
b1000000 c
b100100000 *
b100100000 F
b100100000 b
b100100000 d
b100100000 *"
1,
#310
0,
#315
0O
0'
b10 N
b10 T
0U
b0 !
b0 0
b0 I
b0 Y
b0 Z
b0 q
b0 ,"
b0 /"
b0 :"
bz [
bz ."
17
09
b10 E
b10 X
b10 o
1<
1=
0?
1w
0y
1{
1!"
1#"
1'"
0W
b11010000010 A
b11010000010 M
b11010000010 S
01
b10101101 _
b10101101 )"
b10101101 (
b10101101 C
b10101101 H
b10101101 #
b10101101 5
b10101101 a
b10101101 t
b100011 R
1$
b10101101 c
b100100001 *
b100100001 F
b100100001 b
b100100001 d
b100100001 *"
1,
#320
0,
#325
1x
0z
b1010 &
b1010 >
b1010 L
b1010 Q
b1010 `
b1010 v
1|
1""
1$"
b110110101101 _
b110110101101 )"
b110110101101 (
b110110101101 C
b110110101101 H
b1101 %
b1101 6
b1101 ^
b1101 u
b1101 +"
1("
b0 [
b0 ."
07
19
b0 E
b0 X
b0 o
0<
0=
1?
1W
b1000000001000 A
b1000000001000 M
b1000000001000 S
11
b1010010 R
0$
1,
#330
0,
#335
03
1m
1k
1g
b1101 \
b1101 f
b1101 r
b1101 -"
b1101 s
11"
15"
17"
b1101 !
b1101 0
b1101 I
b1101 Y
b1101 Z
b1101 q
b1101 ,"
b1101 /"
b1101 :"
bz [
bz ."
17
09
b11 E
b11 X
b11 o
1<
1=
0?
1y
0{
1}
0!"
0#"
0'"
0W
b11011000010 A
b11011000010 M
b11011000010 S
01
b110111010000 _
b110111010000 )"
b110111010000 (
b110111010000 C
b110111010000 H
b11010000 #
b11010000 5
b11010000 a
b11010000 t
b1010011 R
1$
b11010000 c
b100100010 *
b100100010 F
b100100010 b
b100100010 d
b100100010 *"
1,
#340
0,
#345
1z
0|
b1101 &
b1101 >
b1101 L
b1101 Q
b1101 `
b1101 v
1~
0""
0$"
b11010000 _
b11010000 )"
b11010000 (
b11010000 C
b11010000 H
b0 %
b0 6
b0 ^
b0 u
b0 +"
0("
b1101 [
b1101 ."
07
19
b0 E
b0 X
b0 o
0<
0=
1?
1k
0i
1g
0P
0"
1W
b1000000001000 A
b1000000001000 M
b1000000001000 S
11
0B
b1101 \
b1101 f
b1101 r
b1101 -"
b1101 s
b0 N
b0 T
0V
b1101000 R
0$
1n
1l
b1101 )
b1101 D
b1101 ]
b1101 e
b1101 p
1h
1,
#350
0,
#355
12"
04"
b1101 +
b1101 G
b1101 0"
16"
1;
0?
1{
0}
1!"
1#"
1%"
1'"
0W
b1001 A
b1001 M
b1001 S
01
b11101111 _
b11101111 )"
b11101111 (
b11101111 C
b11101111 H
b11101111 #
b11101111 5
b11101111 a
b11101111 t
b1101001 R
1$
b11101111 c
b100100011 *
b100100011 F
b100100011 b
b100100011 d
b100100011 *"
1,
#360
0,
#365
1|
b1110 &
b1110 >
b1110 L
b1110 Q
b1110 `
b1110 v
0~
1""
1$"
1&"
b111111101111 _
b111111101111 )"
b111111101111 (
b111111101111 C
b111111101111 H
b1111 %
b1111 6
b1111 ^
b1111 u
b1111 +"
1("
0;
1?
1W
b1000000001000 A
b1000000001000 M
b1000000001000 S
11
b1110000 R
0$
1,
#370
0,
