lab5/lab5.vcd
$date
	Sun Aug 16 10:45:01 2020
$end
$version
	Icarus Verilog
$end
$timescale
	1ps
$end
$scope module testbench $end
$var wire 1 ! y5 $end
$var wire 1 " y4 $end
$var wire 1 # y3 $end
$var wire 1 $ y2 $end
$var wire 1 % y1 $end
$var wire 1 & y0 $end
$var reg 3 ' S0 [2:0] $end
$var reg 2 ( S1 [1:0] $end
$var reg 1 ) S2 $end
$var reg 3 * S3 [2:0] $end
$var reg 2 + S4 [1:0] $end
$var reg 1 , S5 $end
$var reg 2 - b1 [1:0] $end
$var reg 2 . b5 [1:0] $end
$var reg 1 / c $end
$var reg 1 0 c4 $end
$scope module a0 $end
$var wire 1 1 D0 $end
$var wire 1 2 D1 $end
$var wire 1 3 D2 $end
$var wire 1 4 D3 $end
$var wire 1 5 D4 $end
$var wire 1 6 D5 $end
$var wire 1 7 D6 $end
$var wire 1 8 D7 $end
$var wire 3 9 S [2:0] $end
$var wire 1 & y $end
$scope module M8 $end
$var wire 1 1 D0 $end
$var wire 1 2 D1 $end
$var wire 1 3 D2 $end
$var wire 1 4 D3 $end
$var wire 1 5 D4 $end
$var wire 1 6 D5 $end
$var wire 1 7 D6 $end
$var wire 1 8 D7 $end
$var wire 3 : S [2:0] $end
$var wire 1 ; y2 $end
$var wire 1 < y1 $end
$var wire 1 & y $end
$scope module U1 $end
$var wire 1 1 D0 $end
$var wire 1 2 D1 $end
$var wire 1 3 D2 $end
$var wire 1 4 D3 $end
$var wire 2 = S [1:0] $end
$var wire 1 > y2 $end
$var wire 1 ? y1 $end
$var wire 1 < y $end
$scope module U0 $end
$var wire 1 1 D0 $end
$var wire 1 2 D1 $end
$var wire 1 @ S $end
$var wire 1 ? Y $end
$upscope $end
$scope module U1 $end
$var wire 1 3 D0 $end
$var wire 1 4 D1 $end
$var wire 1 A S $end
$var wire 1 > Y $end
$upscope $end
$scope module U2 $end
$var wire 1 ? D0 $end
$var wire 1 > D1 $end
$var wire 1 B S $end
$var wire 1 < Y $end
$upscope $end
$upscope $end
$scope module U2 $end
$var wire 1 5 D0 $end
$var wire 1 6 D1 $end
$var wire 1 7 D2 $end
$var wire 1 8 D3 $end
$var wire 2 C S [1:0] $end
$var wire 1 D y2 $end
$var wire 1 E y1 $end
$var wire 1 ; y $end
$scope module U0 $end
$var wire 1 5 D0 $end
$var wire 1 6 D1 $end
$var wire 1 F S $end
$var wire 1 E Y $end
$upscope $end
$scope module U1 $end
$var wire 1 7 D0 $end
$var wire 1 8 D1 $end
$var wire 1 G S $end
$var wire 1 D Y $end
$upscope $end
$scope module U2 $end
$var wire 1 E D0 $end
$var wire 1 D D1 $end
$var wire 1 H S $end
$var wire 1 ; Y $end
$upscope $end
$upscope $end
$scope module U3 $end
$var wire 1 < D0 $end
$var wire 1 ; D1 $end
$var wire 1 I S $end
$var wire 1 & Y $end
$upscope $end
$upscope $end
$upscope $end
$scope module a1 $end
$var wire 1 J D0 $end
$var wire 1 K D1 $end
$var wire 1 L D2 $end
$var wire 1 M D3 $end
$var wire 2 N S [1:0] $end
$var wire 1 / c $end
$var wire 1 % y $end
$scope module M4 $end
$var wire 1 J D0 $end
$var wire 1 K D1 $end
$var wire 1 L D2 $end
$var wire 1 M D3 $end
$var wire 2 O S [1:0] $end
$var wire 1 P y2 $end
$var wire 1 Q y1 $end
$var wire 1 % y $end
$scope module U0 $end
$var wire 1 J D0 $end
$var wire 1 K D1 $end
$var wire 1 R S $end
$var wire 1 Q Y $end
$upscope $end
$scope module U1 $end
$var wire 1 L D0 $end
$var wire 1 M D1 $end
$var wire 1 S S $end
$var wire 1 P Y $end
$upscope $end
$scope module U2 $end
$var wire 1 Q D0 $end
$var wire 1 P D1 $end
$var wire 1 T S $end
$var wire 1 % Y $end
$upscope $end
$upscope $end
$upscope $end
$scope module a2 $end
$var wire 1 U D0 $end
$var wire 1 V D1 $end
$var wire 1 ) S $end
$var wire 2 W b [1:0] $end
$var wire 1 $ y $end
$scope module M21 $end
$var wire 1 U D0 $end
$var wire 1 V D1 $end
$var wire 1 ) S $end
$var wire 1 $ Y $end
$upscope $end
$upscope $end
$scope module a3 $end
$var wire 1 X D0 $end
$var wire 1 Y D1 $end
$var wire 1 Z D2 $end
$var wire 1 [ D3 $end
$var wire 1 \ D4 $end
$var wire 1 ] D5 $end
$var wire 1 ^ D6 $end
$var wire 1 _ D7 $end
$var wire 3 ` S [2:0] $end
$var wire 1 # y $end
$scope module M9 $end
$var wire 1 X D0 $end
$var wire 1 Y D1 $end
$var wire 1 Z D2 $end
$var wire 1 [ D3 $end
$var wire 1 \ D4 $end
$var wire 1 ] D5 $end
$var wire 1 ^ D6 $end
$var wire 1 _ D7 $end
$var wire 3 a S [2:0] $end
$var wire 1 b y2 $end
$var wire 1 c y1 $end
$var wire 1 # y $end
$scope module U1 $end
$var wire 1 X D0 $end
$var wire 1 Y D1 $end
$var wire 1 Z D2 $end
$var wire 1 [ D3 $end
$var wire 2 d S [1:0] $end
$var wire 1 e y2 $end
$var wire 1 f y1 $end
$var wire 1 c y $end
$scope module U0 $end
$var wire 1 X D0 $end
$var wire 1 Y D1 $end
$var wire 1 g S $end
$var wire 1 f Y $end
$upscope $end
$scope module U1 $end
$var wire 1 Z D0 $end
$var wire 1 [ D1 $end
$var wire 1 h S $end
$var wire 1 e Y $end
$upscope $end
$scope module U2 $end
$var wire 1 f D0 $end
$var wire 1 e D1 $end
$var wire 1 i S $end
$var wire 1 c Y $end
$upscope $end
$upscope $end
$scope module U2 $end
$var wire 1 \ D0 $end
$var wire 1 ] D1 $end
$var wire 1 ^ D2 $end
$var wire 1 _ D3 $end
$var wire 2 j S [1:0] $end
$var wire 1 k y2 $end
$var wire 1 l y1 $end
$var wire 1 b y $end
$scope module U0 $end
$var wire 1 \ D0 $end
$var wire 1 ] D1 $end
$var wire 1 m S $end
$var wire 1 l Y $end
$upscope $end
$scope module U1 $end
$var wire 1 ^ D0 $end
$var wire 1 _ D1 $end
$var wire 1 n S $end
$var wire 1 k Y $end
$upscope $end
$scope module U2 $end
$var wire 1 l D0 $end
$var wire 1 k D1 $end
$var wire 1 o S $end
$var wire 1 b Y $end
$upscope $end
$upscope $end
$scope module U3 $end
$var wire 1 c D0 $end
$var wire 1 b D1 $end
$var wire 1 p S $end
$var wire 1 # Y $end
$upscope $end
$upscope $end
$upscope $end
$scope module a4 $end
$var wire 1 q D0 $end
$var wire 1 r D1 $end
$var wire 1 s D2 $end
$var wire 1 t D3 $end
$var wire 2 u S [1:0] $end
$var wire 1 0 c $end
$var wire 1 " y $end
$scope module M4 $end
$var wire 1 q D0 $end
$var wire 1 r D1 $end
$var wire 1 s D2 $end
$var wire 1 t D3 $end
$var wire 2 v S [1:0] $end
$var wire 1 w y2 $end
$var wire 1 x y1 $end
$var wire 1 " y $end
$scope module U0 $end
$var wire 1 q D0 $end
$var wire 1 r D1 $end
$var wire 1 y S $end
$var wire 1 x Y $end
$upscope $end
$scope module U1 $end
$var wire 1 s D0 $end
$var wire 1 t D1 $end
$var wire 1 z S $end
$var wire 1 w Y $end
$upscope $end
$scope module U2 $end
$var wire 1 x D0 $end
$var wire 1 w D1 $end
$var wire 1 { S $end
$var wire 1 " Y $end
$upscope $end
$upscope $end
$upscope $end
$scope module a5 $end
$var wire 1 | D0 $end
$var wire 1 } D1 $end
$var wire 1 , S $end
$var wire 2 ~ b [1:0] $end
$var wire 1 ! y $end
$scope module M21 $end
$var wire 1 | D0 $end
$var wire 1 } D1 $end
$var wire 1 , S $end
$var wire 1 ! Y $end
$upscope $end
$upscope $end
$upscope $end
$enddefinitions $end
#0
$dumpvars
bx ~
x}
x|
x{
xz
xy
xx
xw
bx v
bx u
xt
xs
0r
xq
xp
xo
xn
xm
xl
xk
bx j
xi
xh
xg
xf
1e
bx d
xc
xb
bx a
bx `
0_
1^
0]
1\
1[
1Z
0Y
1X
bx W
xV
xU
xT
xS
xR
xQ
xP
bx O
bx N
xM
xL
xK
xJ
xI
xH
xG
xF
xE
xD
bx C
xB
xA
x@
x?
x>
bx =
x<
x;
bx :
bx 9
18
07
06
15
04
13
12
01
x0
x/
bx .
bx -
x,
bx +
bx *
x)
bx (
bx '
x&
x%
x$
x#
x"
x!
$end
#1
0&
0<
1;
0?
1>
1E
0D
0@
0A
0B
0F
0G
0H
b0 =
b0 C
0I
b0 '
b0 9
b0 :
#2
1&
1I
b1 '
b1 9
b1 :
#3
1<
0;
1?
0>
0E
1D
1@
1A
1F
1G
1&
b1 =
b1 C
0I
b10 '
b10 9
b10 :
#4
0&
1I
b11 '
b11 9
b11 :
#5
0?
1>
1<
1E
0D
0;
0@
0A
1B
0F
0G
1H
1&
b10 =
b10 C
0I
b100 '
b100 9
b100 :
#6
0&
1I
b101 '
b101 9
b101 :
#7
0<
1;
1?
0>
0E
1D
1@
1A
1F
1G
0&
b11 =
b11 C
0I
b110 '
b110 9
b110 :
#8
1&
1I
b111 '
b111 9
b111 :
#10
1P
0%
0Q
1K
1L
0R
0S
0T
0J
0M
0/
b0 (
b0 N
b0 O
#11
1%
0P
1Q
0K
0L
1J
1M
1/
#12
1K
1L
1R
1S
0J
0M
0/
b1 (
b1 N
b1 O
#13
0%
0Q
0K
0L
1P
1J
1M
1/
#14
1%
1K
1L
1P
0R
0S
1T
0J
0M
0/
b10 (
b10 N
b10 O
#15
0%
0P
1Q
0K
0L
1J
1M
1/
#16
1K
1L
1R
1S
0J
0M
0/
b11 (
b11 N
b11 O
#17
0Q
1%
0K
0L
1P
1J
1M
1/
#20
0$
1V
0U
b0 -
b0 W
0)
#21
1$
0V
1U
b1 -
b1 W
#22
b10 -
b10 W
#23
0$
1V
0U
b11 -
b11 W
#24
1$
b0 -
b0 W
1)
#25
0$
0V
1U
b1 -
b1 W
#26
b10 -
b10 W
#27
1$
1V
0U
b11 -
b11 W
#30
1#
1c
1b
1f
1l
1k
0g
0h
0i
0m
0n
0o
b0 d
b0 j
0p
b0 *
b0 `
b0 a
#31
1p
b1 *
b1 `
b1 a
#32
0#
0c
0b
0f
0l
0k
1g
1h
1m
1n
b1 d
b1 j
0p
b10 *
b10 `
b10 a
#33
1p
b11 *
b11 `
b11 a
#34
1#
1b
1f
1c
1l
1k
0g
0h
1i
0m
0n
1o
b10 d
b10 j
0p
b100 *
b100 `
b100 a
#35
1p
b101 *
b101 `
b101 a
#36
0b
0f
0l
0k
1g
1h
1m
1n
b11 d
b11 j
0p
b110 *
b110 `
b110 a
#37
0#
1p
b111 *
b111 `
b111 a
#40
1"
1x
1q
0w
1t
0y
0z
0{
0s
00
b0 +
b0 u
b0 v
#41
0"
0x
0q
1w
0t
1s
10
#42
1q
1t
1y
1z
0s
00
b1 +
b1 u
b1 v
#43
0w
0q
0t
1s
10
#44
1x
1q
1t
0y
0z
1{
0s
00
b10 +
b10 u
b10 v
#45
0x
1"
0q
1w
0t
1s
10
#46
1q
1t
1y
1z
0s
00
b11 +
b11 u
b11 v
#47
0"
0w
0q
0t
1s
10
#50
1!
1|
0}
b0 .
b0 ~
0,
#51
1}
b1 .
b1 ~
#52
0!
0|
b10 .
b10 ~
#53
0}
b11 .
b11 ~
#54
1|
b0 .
b0 ~
1,
#55
1!
1}
b1 .
b1 ~
#56
0|
b10 .
b10 ~
#57
0!
0}
b11 .
b11 ~
