proyecto2/uP_tb.vcd
$date
	Sat Nov 21 13:51:12 2020
$end
$version
	Icarus Verilog
$end
$timescale
	1ps
$end
$scope module testbench $end
$var wire 4 ! data_bus [3:0] $end
$var wire 1 " z_flag $end
$var wire 8 # program_byte [7:0] $end
$var wire 1 $ phase $end
$var wire 4 % oprnd [3:0] $end
$var wire 4 & instr [3:0] $end
$var wire 1 ' c_flag $end
$var wire 12 ( address_RAM [11:0] $end
$var wire 4 ) accu [3:0] $end
$var wire 12 * PC [11:0] $end
$var wire 4 + FF_out [3:0] $end
$var reg 1 , clock $end
$var reg 4 - pushbuttons [3:0] $end
$var reg 1 . reset $end
$var integer 32 / immediateDelay [31:0] $end
$var integer 32 0 jumpDelay [31:0] $end
$var integer 32 1 memoryDelay [31:0] $end
$var integer 32 2 nota [31:0] $end
$scope module uPmodule $end
$var wire 1 3 clk $end
$var wire 1 , clock $end
$var wire 4 4 data_bus [3:0] $end
$var wire 1 5 f_phase $end
$var wire 4 6 pushbuttons [3:0] $end
$var wire 1 . reset $end
$var wire 1 " z_flag $end
$var wire 1 7 z $end
$var wire 1 8 weRAM $end
$var wire 8 9 program_byte [7:0] $end
$var wire 1 $ phase $end
$var wire 4 : oprnd [3:0] $end
$var wire 1 ; oeOprnd $end
$var wire 1 < oeIN $end
$var wire 1 = oeALU $end
$var wire 1 > loadPC $end
$var wire 1 ? loadOut $end
$var wire 1 @ loadFlags $end
$var wire 1 A loadA $end
$var wire 4 B instr [3:0] $end
$var wire 1 C incPC $end
$var wire 1 D csRAM $end
$var wire 13 E control [12:0] $end
$var wire 1 ' c_flag $end
$var wire 1 F c $end
$var wire 12 G address_RAM [11:0] $end
$var wire 4 H accu [3:0] $end
$var wire 3 I Sel [2:0] $end
$var wire 12 J PC [11:0] $end
$var wire 4 K FF_out [3:0] $end
$scope module i_RAM $end
$var wire 12 L address [11:0] $end
$var wire 1 D csRAM $end
$var wire 4 M data [3:0] $end
$var wire 1 8 weRAM $end
$var reg 4 N salida [3:0] $end
$upscope $end
$scope module i_control $end
$var wire 1 , clk $end
$var wire 1 @ enable_flags $end
$var wire 1 O enable_phase $end
$var wire 1 . reset $end
$var wire 1 7 z $end
$var wire 1 $ phase $end
$var wire 4 P instr [3:0] $end
$var wire 1 " flag_z $end
$var wire 1 ' flag_c $end
$var wire 13 Q control [12:0] $end
$var wire 1 F c $end
$var wire 2 R Q [1:0] $end
$scope module i_decode $end
$var wire 1 S c $end
$var wire 1 T z $end
$var wire 1 $ phase $end
$var wire 4 U instr [3:0] $end
$var wire 7 V algo [6:0] $end
$var reg 13 W control [12:0] $end
$upscope $end
$scope module i_flags $end
$var wire 1 , clk $end
$var wire 1 @ enable $end
$var wire 1 . reset $end
$var wire 1 7 z $end
$var wire 1 F c $end
$var wire 2 X Q [1:0] $end
$scope module i_flipflopDc $end
$var wire 1 , CLK $end
$var wire 1 @ enable $end
$var wire 1 . reset $end
$var wire 1 F D $end
$var reg 1 Y Q $end
$upscope $end
$scope module i_flipflopDz $end
$var wire 1 , CLK $end
$var wire 1 @ enable $end
$var wire 1 . reset $end
$var wire 1 7 D $end
$var reg 1 Z Q $end
$upscope $end
$upscope $end
$scope module i_phase $end
$var wire 1 , clk $end
$var wire 1 [ d $end
$var wire 1 O enable $end
$var wire 1 . reset $end
$var wire 1 $ q $end
$scope module f1 $end
$var wire 1 , CLK $end
$var wire 1 [ D $end
$var wire 1 O enable $end
$var wire 1 . reset $end
$var reg 1 $ Q $end
$upscope $end
$upscope $end
$upscope $end
$scope module i_ej1_2 $end
$var wire 3 \ Sel [2:0] $end
$var wire 1 A accu_en $end
$var wire 1 ; bus1_en $end
$var wire 1 = bus2_en $end
$var wire 1 , clk $end
$var wire 1 5 fetch_en $end
$var wire 1 > load $end
$var wire 4 ] out [3:0] $end
$var wire 4 ^ out_bus1 [3:0] $end
$var wire 1 C pc_en $end
$var wire 1 . reset $end
$var wire 1 . reset_accu $end
$var wire 1 7 z $end
$var wire 4 _ y [3:0] $end
$var wire 4 ` out_alu [3:0] $end
$var wire 4 a out_accu [3:0] $end
$var wire 4 b oprnd [3:0] $end
$var wire 12 c loadbits [11:0] $end
$var wire 4 d instr [3:0] $end
$var wire 8 e data [7:0] $end
$var wire 1 F c $end
$var wire 12 f address [11:0] $end
$scope module i_ROM $end
$var wire 8 g data [7:0] $end
$var wire 12 h adress [11:0] $end
$upscope $end
$scope module i_accumulator $end
$var wire 1 , clk $end
$var wire 1 A enable $end
$var wire 1 . reset $end
$var wire 4 i out [3:0] $end
$var wire 4 j in [3:0] $end
$scope module i_flipflopD1 $end
$var wire 1 , CLK $end
$var wire 1 k D $end
$var wire 1 A enable $end
$var wire 1 . reset $end
$var reg 1 l Q $end
$upscope $end
$scope module i_flipflopD2 $end
$var wire 1 , CLK $end
$var wire 1 m D $end
$var wire 1 A enable $end
$var wire 1 . reset $end
$var reg 1 n Q $end
$upscope $end
$scope module i_flipflopD3 $end
$var wire 1 , CLK $end
$var wire 1 o D $end
$var wire 1 A enable $end
$var wire 1 . reset $end
$var reg 1 p Q $end
$upscope $end
$scope module i_flipflopD4 $end
$var wire 1 , CLK $end
$var wire 1 q D $end
$var wire 1 A enable $end
$var wire 1 . reset $end
$var reg 1 r Q $end
$upscope $end
$upscope $end
$scope module i_alu $end
$var wire 3 s Sel [2:0] $end
$var wire 4 t a [3:0] $end
$var wire 4 u b [3:0] $end
$var wire 1 7 z $end
$var reg 1 F c $end
$var reg 4 v out [3:0] $end
$var reg 5 w out1 [4:0] $end
$upscope $end
$scope module i_fetch $end
$var wire 1 , clk $end
$var wire 1 5 enable $end
$var wire 8 x prog_byte [7:0] $end
$var wire 1 . reset $end
$var wire 4 y oprnd [3:0] $end
$var wire 4 z instr [3:0] $end
$scope module ff1 $end
$var wire 1 , CLK $end
$var wire 1 { D $end
$var wire 1 5 enable $end
$var wire 1 . reset $end
$var reg 1 | Q $end
$upscope $end
$scope module ff2 $end
$var wire 1 , CLK $end
$var wire 1 } D $end
$var wire 1 5 enable $end
$var wire 1 . reset $end
$var reg 1 ~ Q $end
$upscope $end
$scope module ff3 $end
$var wire 1 , CLK $end
$var wire 1 !" D $end
$var wire 1 5 enable $end
$var wire 1 . reset $end
$var reg 1 "" Q $end
$upscope $end
$scope module ff4 $end
$var wire 1 , CLK $end
$var wire 1 #" D $end
$var wire 1 5 enable $end
$var wire 1 . reset $end
$var reg 1 $" Q $end
$upscope $end
$scope module ff5 $end
$var wire 1 , CLK $end
$var wire 1 %" D $end
$var wire 1 5 enable $end
$var wire 1 . reset $end
$var reg 1 &" Q $end
$upscope $end
$scope module ff6 $end
$var wire 1 , CLK $end
$var wire 1 '" D $end
$var wire 1 5 enable $end
$var wire 1 . reset $end
$var reg 1 (" Q $end
$upscope $end
$scope module ff7 $end
$var wire 1 , CLK $end
$var wire 1 )" D $end
$var wire 1 5 enable $end
$var wire 1 . reset $end
$var reg 1 *" Q $end
$upscope $end
$scope module ff8 $end
$var wire 1 , CLK $end
$var wire 1 +" D $end
$var wire 1 5 enable $end
$var wire 1 . reset $end
$var reg 1 ," Q $end
$upscope $end
$upscope $end
$scope module i_pc_counter $end
$var wire 1 , clk $end
$var wire 1 C enable $end
$var wire 1 > load $end
$var wire 12 -" loadbits [11:0] $end
$var wire 1 . reset $end
$var reg 12 ." count [11:0] $end
$upscope $end
$scope module i_tristate_buffer1 $end
$var wire 4 /" a [3:0] $end
$var wire 1 ; enable $end
$var wire 4 0" y [3:0] $end
$upscope $end
$scope module i_tristate_buffer2 $end
$var wire 4 1" a [3:0] $end
$var wire 1 = enable $end
$var wire 4 2" y [3:0] $end
$upscope $end
$upscope $end
$scope module i_flipflopD4 $end
$var wire 1 3 clk $end
$var wire 1 ? enable $end
$var wire 4 3" in [3:0] $end
$var wire 1 . reset $end
$var wire 4 4" out [3:0] $end
$scope module i_flipflopD1 $end
$var wire 1 3 CLK $end
$var wire 1 5" D $end
$var wire 1 ? enable $end
$var wire 1 . reset $end
$var reg 1 6" Q $end
$upscope $end
$scope module i_flipflopD2 $end
$var wire 1 3 CLK $end
$var wire 1 7" D $end
$var wire 1 ? enable $end
$var wire 1 . reset $end
$var reg 1 8" Q $end
$upscope $end
$scope module i_flipflopD3 $end
$var wire 1 3 CLK $end
$var wire 1 9" D $end
$var wire 1 ? enable $end
$var wire 1 . reset $end
$var reg 1 :" Q $end
$upscope $end
$scope module i_flipflopD4 $end
$var wire 1 3 CLK $end
$var wire 1 ;" D $end
$var wire 1 ? enable $end
$var wire 1 . reset $end
$var reg 1 <" Q $end
$upscope $end
$upscope $end
$scope module i_tristate_buffer $end
$var wire 4 =" a [3:0] $end
$var wire 1 < enable $end
$var wire 4 >" y [3:0] $end
$upscope $end
$upscope $end
$upscope $end
$enddefinitions $end
#0
$dumpvars
bx >"
b110 ="
x<"
x;"
x:"
x9"
x8"
x7"
x6"
x5"
bx 4"
bx 3"
bx 2"
bx 1"
bx 0"
bx /"
bx ."
bx -"
x,"
x+"
x*"
x)"
x("
x'"
x&"
x%"
x$"
x#"
x""
x!"
x~
x}
x|
x{
bx z
bx y
bx x
bx w
bx v
bx u
bx t
bx s
xr
xq
xp
xo
xn
xm
xl
xk
bx j
bx i
bx h
bx g
bx f
bx e
bx d
bx c
bx b
bx a
bx `
bx _
bx ^
bx ]
bx \
x[
xZ
xY
bx X
bx W
bx V
bx U
xT
xS
bx R
bx Q
bx P
1O
bx N
bx M
bx L
bx K
bx J
bx I
bx H
bx G
xF
bx E
xD
xC
bx B
xA
x@
x?
x>
x=
x<
x;
bx :
bx 9
x8
x7
b110 6
x5
bx 4
z3
b0 2
b100010100 1
b1010010000 0
b10000 /
0.
b110 -
0,
bx +
bx *
bx )
bx (
x'
bx &
bx %
x$
bx #
x"
bx !
$end
#2
17
05"
07"
09"
0;"
b0 !
b0 4
b0 M
b0 ]
b0 ^
b0 u
b0 0"
b0 3"
b0 >"
b0 _
b0 2"
0q
0o
0m
0k
0?
0;
0<
1=
08
0D
b0 I
b0 \
b0 s
0@
0A
0>
1C
0{
1}
0!"
0#"
1%"
1'"
1)"
1+"
0S
0'
0T
0"
1[
15
0F
b0 `
b0 j
b0 v
b0 1"
b0 w
b1000000001000 E
b1000000001000 Q
b1000000001000 W
b1001111 #
b1001111 9
b1001111 e
b1001111 g
b1001111 x
0Y
b0 R
b0 X
0Z
0$
0l
0n
0p
b0 )
b0 H
b0 a
b0 i
b0 t
0r
0|
0~
0""
b0 V
b0 &
b0 B
b0 P
b0 U
b0 d
b0 z
0$"
0&"
0("
0*"
b1001111 c
b1001111 -"
b1001111 (
b1001111 G
b1001111 L
b0 %
b0 :
b0 b
b0 y
b0 /"
0,"
b0 *
b0 J
b0 f
b0 h
b0 ."
06"
08"
0:"
b0 +
b0 K
b0 4"
0<"
1.
#3
0.
#5
1T
1"
b10 R
b10 X
1Z
07
1q
1o
1m
1k
b1111 `
b1111 j
b1111 v
b1111 1"
b1111 w
15"
17"
19"
1;"
b1111 !
b1111 4
b1111 M
b1111 ]
b1111 ^
b1111 u
b1111 0"
b1111 3"
b1111 >"
bz _
bz 2"
1;
0=
b10 I
b10 \
b10 s
1@
1A
0C
1{
1#"
0[
05
b11010000010 E
b11010000010 Q
b11010000010 W
b11011111 #
b11011111 9
b11011111 e
b11011111 g
b11011111 x
1$
b100011 V
b100 &
b100 B
b100 P
b100 U
b100 d
b100 z
1~
1&"
1("
1*"
b111111011111 c
b111111011111 -"
b111111011111 (
b111111011111 G
b111111011111 L
b1111 %
b1111 :
b1111 b
b1111 y
b1111 /"
1,"
b1 *
b1 J
b1 f
b1 h
b1 ."
1,
#10
0,
#15
1$"
b1101 &
b1101 B
b1101 P
b1101 U
b1101 d
b1101 z
1|
b1111 _
b1111 2"
0;
1=
b0 I
b0 \
b0 s
0@
0A
1C
0T
0"
1[
b1000000001000 E
b1000000001000 Q
b1000000001000 W
15
b0 R
b0 X
0Z
b1101000 V
0$
1l
1n
1p
b1111 )
b1111 H
b1111 a
b1111 i
b1111 t
1r
1,
#16
b1000110 2
#20
0,
#25
16"
18"
1:"
b1111 +
b1111 K
b1111 4"
1<"
1?
0C
0{
0%"
0'"
0)"
0[
b1001 E
b1001 Q
b1001 W
05
b111101010001 c
b111101010001 -"
b111101010001 (
b111101010001 G
b111101010001 L
b1010001 #
b1010001 9
b1010001 e
b1010001 g
b1010001 x
b1101001 V
1$
b10 *
b10 J
b10 f
b10 h
b10 ."
1,
#30
0,
#35
0*"
0("
b101010001 c
b101010001 -"
b101010001 (
b101010001 G
b101010001 L
b1 %
b1 :
b1 b
b1 y
b1 /"
0&"
b101 &
b101 B
b101 P
b101 U
b101 d
b101 z
0|
0?
1C
1[
b1000000001000 E
b1000000001000 Q
b1000000001000 W
15
b101000 V
0$
1,
#36
b1100111 2
#40
0,
#45
0q
0k
b110 `
b110 j
b110 v
b110 1"
b110 w
05"
0;"
b110 !
b110 4
b110 M
b110 ]
b110 ^
b110 u
b110 0"
b110 3"
b110 >"
bz _
bz 2"
1<
0=
b10 I
b10 \
b10 s
1@
1A
0C
0#"
0+"
0[
b11010000100 E
b11010000100 Q
b11010000100 W
05
b101000000 c
b101000000 -"
b101000000 (
b101000000 G
b101000000 L
b1000000 #
b1000000 9
b1000000 e
b1000000 g
b1000000 x
b101001 V
1$
b11 *
b11 J
b11 f
b11 h
b11 ."
1,
#50
0,
#55
b1000000 c
b1000000 -"
b1000000 (
b1000000 G
b1000000 L
b0 %
b0 :
b0 b
b0 y
b0 /"
0,"
b100 &
b100 B
b100 P
b100 U
b100 d
b100 z
0$"
b110 _
b110 2"
0<
1=
b0 I
b0 \
b0 s
0@
0A
1C
1[
b1000000001000 E
b1000000001000 Q
b1000000001000 W
15
b100000 V
0$
0l
b110 )
b110 H
b110 a
b110 i
b110 t
0r
1,
#56
b10001000 2
#60
0,
#65
17
0o
0m
b0 `
b0 j
b0 v
b0 1"
b0 w
07"
09"
b0 !
b0 4
b0 M
b0 ]
b0 ^
b0 u
b0 0"
b0 3"
b0 >"
bz _
bz 2"
1;
0=
b10 I
b10 \
b10 s
1@
1A
0C
1%"
1'"
1)"
1+"
0[
b11010000010 E
b11010000010 Q
b11010000010 W
05
b1001111 c
b1001111 -"
b1001111 (
b1001111 G
b1001111 L
b1001111 #
b1001111 9
b1001111 e
b1001111 g
b1001111 x
b100001 V
1$
b100 *
b100 J
b100 f
b100 h
b100 ."
1,
#70
0,
#75
1,"
1*"
1("
b111101001111 c
b111101001111 -"
b111101001111 (
b111101001111 G
b111101001111 L
b1111 %
b1111 :
b1111 b
b1111 y
b1111 /"
1&"
b0 _
b0 2"
0;
1=
b0 I
b0 \
b0 s
0@
0A
1C
1T
1"
1[
b1000000001000 E
b1000000001000 Q
b1000000001000 W
15
b10 R
b10 X
1Z
b100010 V
0$
0n
b0 )
b0 H
b0 a
b0 i
b0 t
0p
1,
#80
0,
#85
07
1q
1o
1m
1k
b1111 `
b1111 j
b1111 v
b1111 1"
b1111 w
15"
17"
19"
1;"
b1111 !
b1111 4
b1111 M
b1111 ]
b1111 ^
b1111 u
b1111 0"
b1111 3"
b1111 >"
bz _
bz 2"
1;
0=
b10 I
b10 \
b10 s
1@
1A
0C
1{
0}
1!"
0'"
0+"
0[
b11010000010 E
b11010000010 Q
b11010000010 W
05
b111110101010 c
b111110101010 -"
b111110101010 (
b111110101010 G
b111110101010 L
b10101010 #
b10101010 9
b10101010 e
b10101010 g
b10101010 x
b100011 V
1$
b101 *
b101 J
b101 f
b101 h
b101 ."
1,
#90
0,
#95
0,"
b101010101010 c
b101010101010 -"
b101010101010 (
b101010101010 G
b101010101010 L
b1010 %
b1010 :
b1010 b
b1010 y
b1010 /"
0("
1""
0~
b1010 &
b1010 B
b1010 P
b1010 U
b1010 d
b1010 z
1|
b1111 _
b1111 2"
0;
1=
b0 I
b0 \
b0 s
0@
0A
1C
0T
0"
1[
b1000000001000 E
b1000000001000 Q
b1000000001000 W
15
b0 R
b0 X
0Z
b1010000 V
0$
1l
1n
1p
b1111 )
b1111 H
b1111 a
b1111 i
b1111 t
1r
1,
#100
0,
#105
0o
0m
05"
09"
1k
b1010 !
b1010 4
b1010 M
b1010 ]
b1010 ^
b1010 u
b1010 0"
b1010 3"
b1010 >"
bz _
bz 2"
1F
b1001 `
b1001 j
b1001 v
b1001 1"
b11001 w
1;
0=
b11 I
b11 \
b11 s
1@
1A
0C
0{
0)"
0[
b11011000010 E
b11011000010 Q
b11011000010 W
05
b101000101000 c
b101000101000 -"
b101000101000 (
b101000101000 G
b101000101000 L
b101000 #
b101000 9
b101000 e
b101000 g
b101000 x
b1010001 V
1$
b110 *
b110 J
b110 f
b110 h
b110 ."
1,
#110
0,
#115
b100000101000 c
b100000101000 -"
b100000101000 (
b100000101000 G
b100000101000 L
b1000 %
b1000 :
b1000 b
b1000 y
b1000 /"
0*"
b10 &
b10 B
b10 P
b10 U
b10 d
b10 z
0|
15"
07"
b1001 !
b1001 4
b1001 M
b1001 ]
b1001 ^
b1001 u
b1001 0"
b1001 3"
b1001 >"
b1001 _
b1001 2"
0F
0;
1=
b0 I
b0 \
b0 s
0@
0A
1C
1q
0m
1S
1'
1[
b1000000001000 E
b1000000001000 Q
b1000000001000 W
15
b1001 `
b1001 j
b1001 v
b1001 1"
b1001 w
b1 R
b1 X
1Y
b10100 V
0$
0n
b1001 )
b1001 H
b1001 a
b1001 i
b1001 t
0p
1,
#116
b10101001 2
#120
0,
#125
0S
0'
b0 R
b0 X
0Y
07
05"
b1000 !
b1000 4
b1000 M
b1000 ]
b1000 ^
b1000 u
b1000 0"
b1000 3"
b1000 >"
bz _
bz 2"
b1 w
1;
0=
b1 I
b1 \
b1 s
1@
0C
1}
0!"
1)"
0[
b1001000010 E
b1001000010 Q
b1001000010 W
05
b100001001010 c
b100001001010 -"
b100001001010 (
b100001001010 G
b100001001010 L
b1001010 #
b1001010 9
b1001010 e
b1001010 g
b1001010 x
b10001 V
1$
b111 *
b111 J
b111 f
b111 h
b111 ."
1,
#130
0,
#135
b101001001010 c
b101001001010 -"
b101001001010 (
b101001001010 G
b101001001010 L
b1010 %
b1010 :
b1010 b
b1010 y
b1010 /"
1*"
0""
b100 &
b100 B
b100 P
b100 U
b100 d
b100 z
1~
15"
b1001 !
b1001 4
b1001 M
b1001 ]
b1001 ^
b1001 u
b1001 0"
b1001 3"
b1001 >"
b1001 _
b1001 2"
b1001 w
0;
1=
b0 I
b0 \
b0 s
0@
1C
1[
b1000000001000 E
b1000000001000 Q
b1000000001000 W
15
b100000 V
0$
1,
#136
b11001010 2
#140
0,
#145
1m
0k
b1010 `
b1010 j
b1010 v
b1010 1"
b1010 w
05"
17"
b1010 !
b1010 4
b1010 M
b1010 ]
b1010 ^
b1010 u
b1010 0"
b1010 3"
b1010 >"
bz _
bz 2"
1;
0=
b10 I
b10 \
b10 s
1@
1A
0C
0}
1!"
1'"
0)"
0[
b11010000010 E
b11010000010 Q
b11010000010 W
05
b101000101100 c
b101000101100 -"
b101000101100 (
b101000101100 G
b101000101100 L
b101100 #
b101100 9
b101100 e
b101100 g
b101100 x
b100001 V
1$
b1000 *
b1000 J
b1000 f
b1000 h
b1000 ."
1,
#150
0,
#155
0*"
b110000101100 c
b110000101100 -"
b110000101100 (
b110000101100 G
b110000101100 L
b1100 %
b1100 :
b1100 b
b1100 y
b1100 /"
1("
1""
b10 &
b10 B
b10 P
b10 U
b10 d
b10 z
0~
b1010 _
b1010 2"
0;
1=
b0 I
b0 \
b0 s
0@
0A
1C
1[
b1000000001000 E
b1000000001000 Q
b1000000001000 W
15
b10000 V
0$
0l
b1010 )
b1010 H
b1010 a
b1010 i
b1010 t
1n
1,
#160
0,
#165
1F
07"
19"
b1100 !
b1100 4
b1100 M
b1100 ]
b1100 ^
b1100 u
b1100 0"
b1100 3"
b1100 >"
bz _
bz 2"
b11110 w
1;
0=
b1 I
b1 \
b1 s
1@
0C
1{
0%"
0'"
1+"
0[
b1001000010 E
b1001000010 Q
b1001000010 W
05
b110010100001 c
b110010100001 -"
b110010100001 (
b110010100001 G
b110010100001 L
b10100001 #
b10100001 9
b10100001 e
b10100001 g
b10100001 x
b10001 V
1$
b1001 *
b1001 J
b1001 f
b1001 h
b1001 ."
1,
#170
0,
#175
1,"
0("
b110100001 c
b110100001 -"
b110100001 (
b110100001 G
b110100001 L
b1 %
b1 :
b1 b
b1 y
b1 /"
0&"
b1010 &
b1010 B
b1010 P
b1010 U
b1010 d
b1010 z
1|
17"
09"
b1010 !
b1010 4
b1010 M
b1010 ]
b1010 ^
b1010 u
b1010 0"
b1010 3"
b1010 >"
b1010 _
b1010 2"
0F
b1010 w
0;
1=
b0 I
b0 \
b0 s
0@
1C
1S
1'
1[
b1000000001000 E
b1000000001000 Q
b1000000001000 W
15
b1 R
b1 X
1Y
b1010100 V
0$
1,
#176
b11101011 2
#180
0,
#185
0S
0'
b0 R
b0 X
0Y
1k
15"
07"
0;"
1q
0o
1m
b1 !
b1 4
b1 M
b1 ]
b1 ^
b1 u
b1 0"
b1 3"
b1 >"
bz _
bz 2"
0F
b1011 `
b1011 j
b1011 v
b1011 1"
b1011 w
1;
0=
b11 I
b11 \
b11 s
1@
1A
0C
1}
1%"
1)"
0[
b11011000010 E
b11011000010 Q
b11011000010 W
05
b111101011 c
b111101011 -"
b111101011 (
b111101011 G
b111101011 L
b11101011 #
b11101011 9
b11101011 e
b11101011 g
b11101011 x
b1010001 V
1$
b1010 *
b1010 J
b1010 f
b1010 h
b1010 ."
1,
#190
0,
#195
1*"
b101111101011 c
b101111101011 -"
b101111101011 (
b101111101011 G
b101111101011 L
b1011 %
b1011 :
b1011 b
b1011 y
b1011 /"
1&"
b1110 &
b1110 B
b1110 P
b1110 U
b1110 d
b1110 z
1~
17"
1;"
b1011 !
b1011 4
b1011 M
b1011 ]
b1011 ^
b1011 u
b1011 0"
b1011 3"
b1011 >"
b1011 _
b1011 2"
0;
1=
b0 I
b0 \
b0 s
0@
0A
1C
0o
1m
1k
1[
b1000000001000 E
b1000000001000 Q
b1000000001000 W
15
b1011 `
b1011 j
b1011 v
b1011 1"
b1011 w
b1110000 V
0$
b1011 )
b1011 H
b1011 a
b1011 i
b1011 t
1l
1,
#196
b100001100 2
#200
0,
#205
0q
1o
0m
0k
b1011 !
b1011 4
b1011 M
b1011 ]
b1011 ^
b1011 u
b1011 0"
b1011 3"
b1011 >"
bz _
bz 2"
b100 `
b100 j
b100 v
b100 1"
b10100 w
1;
0=
b100 I
b100 \
b100 s
1@
1A
0C
0!"
1#"
0%"
0)"
0+"
0[
b11100000010 E
b11100000010 Q
b11100000010 W
05
b101111010000 c
b101111010000 -"
b101111010000 (
b101111010000 G
b101111010000 L
b11010000 #
b11010000 9
b11010000 e
b11010000 g
b11010000 x
b1110001 V
1$
b1011 *
b1011 J
b1011 f
b1011 h
b1011 ."
1,
#210
0,
#215
0,"
0*"
b11010000 c
b11010000 -"
b11010000 (
b11010000 G
b11010000 L
b0 %
b0 :
b0 b
b0 y
b0 /"
0&"
1$"
b1101 &
b1101 B
b1101 P
b1101 U
b1101 d
b1101 z
0""
05"
07"
19"
0;"
b100 !
b100 4
b100 M
b100 ]
b100 ^
b100 u
b100 0"
b100 3"
b100 >"
b100 _
b100 2"
0;
1=
b0 I
b0 \
b0 s
0@
0A
1C
0q
0m
0k
1[
b1000000001000 E
b1000000001000 Q
b1000000001000 W
15
b100 `
b100 j
b100 v
b100 1"
b100 w
b1101000 V
0$
0l
0n
1p
b100 )
b100 H
b100 a
b100 i
b100 t
0r
1,
#216
b101001110 2
#220
0,
#225
06"
08"
b100 +
b100 K
b100 4"
0<"
1?
0C
0{
0[
b1001 E
b1001 Q
b1001 W
05
b1010000 c
b1010000 -"
b1010000 (
b1010000 G
b1010000 L
b1010000 #
b1010000 9
b1010000 e
b1010000 g
b1010000 x
b1101001 V
1$
b1100 *
b1100 J
b1100 f
b1100 h
b1100 ."
1,
#230
0,
#235
b101 &
b101 B
b101 P
b101 U
b101 d
b101 z
0|
0?
1C
1[
b1000000001000 E
b1000000001000 Q
b1000000001000 W
15
b101000 V
0$
1,
#236
b1110 -
b1110 6
b1110 ="
b101101111 2
#240
0,
#245
1q
1m
b1110 `
b1110 j
b1110 v
b1110 1"
b1110 w
17"
1;"
b1110 !
b1110 4
b1110 M
b1110 ]
b1110 ^
b1110 u
b1110 0"
b1110 3"
b1110 >"
bz _
bz 2"
1<
0=
b10 I
b10 \
b10 s
1@
1A
0C
1!"
0[
b11010000100 E
b11010000100 Q
b11010000100 W
05
b1110000 c
b1110000 -"
b1110000 (
b1110000 G
b1110000 L
b1110000 #
b1110000 9
b1110000 e
b1110000 g
b1110000 x
b101001 V
1$
b1101 *
b1101 J
b1101 f
b1101 h
b1101 ."
1,
#250
0,
#255
b111 &
b111 B
b111 P
b111 U
b111 d
b111 z
1""
b1110 _
b1110 2"
0<
1=
b0 I
b0 \
b0 s
0@
0A
1C
1[
b1000000001000 E
b1000000001000 Q
b1000000001000 W
15
b111000 V
0$
1n
b1110 )
b1110 H
b1110 a
b1110 i
b1110 t
1r
1,
#256
b110010000 2
#260
0,
#265
18
1D
0}
0!"
0#"
0[
b1000000111000 E
b1000000111000 Q
b1000000111000 W
05
b0 c
b0 -"
b0 (
b0 G
b0 L
b0 #
b0 9
b0 e
b0 g
b0 x
b111001 V
1$
b1110 *
b1110 J
b1110 f
b1110 h
b1110 ."
1,
#270
0,
#275
1,"
1*"
1("
b1111 %
b1111 :
b1111 b
b1111 y
b1111 /"
1&"
0$"
b100 &
b100 B
b100 P
b100 U
b100 d
b100 z
0""
08
0D
1}
1%"
1'"
1)"
1+"
1[
b1000000001000 E
b1000000001000 Q
b1000000001000 W
15
b111101001111 c
b111101001111 -"
b111101001111 (
b111101001111 G
b111101001111 L
b1001111 #
b1001111 9
b1001111 e
b1001111 g
b1001111 x
b100000 V
0$
b1111 *
b1111 J
b1111 f
b1111 h
b1111 ."
1,
#280
0,
#285
1k
b1111 `
b1111 j
b1111 v
b1111 1"
b1111 w
15"
b1111 !
b1111 4
b1111 M
b1111 ]
b1111 ^
b1111 u
b1111 0"
b1111 3"
b1111 >"
bz _
bz 2"
1;
0=
b10 I
b10 \
b10 s
1@
1A
0C
1!"
1#"
0%"
0'"
0)"
0[
b11010000010 E
b11010000010 Q
b11010000010 W
05
b111101110001 c
b111101110001 -"
b111101110001 (
b111101110001 G
b111101110001 L
b1110001 #
b1110001 9
b1110001 e
b1110001 g
b1110001 x
b100001 V
1$
b10000 *
b10000 J
b10000 f
b10000 h
b10000 ."
1,
#290
0,
#295
0*"
0("
b101110001 c
b101110001 -"
b101110001 (
b101110001 G
b101110001 L
b1 %
b1 :
b1 b
b1 y
b1 /"
0&"
1$"
b111 &
b111 B
b111 P
b111 U
b111 d
b111 z
1""
b1111 _
b1111 2"
0;
1=
b0 I
b0 \
b0 s
0@
0A
1C
1[
b1000000001000 E
b1000000001000 Q
b1000000001000 W
15
b111000 V
0$
b1111 )
b1111 H
b1111 a
b1111 i
b1111 t
1l
1,
#300
0,
#305
18
1D
0}
0!"
0[
b1000000111000 E
b1000000111000 Q
b1000000111000 W
05
b100010001 c
b100010001 -"
b100010001 (
b100010001 G
b100010001 L
b10001 #
b10001 9
b10001 e
b10001 g
b10001 x
b111001 V
1$
b10001 *
b10001 J
b10001 f
b10001 h
b10001 ."
1,
#310
0,
#315
0,"
1*"
b1010 %
b1010 :
b1010 b
b1010 y
b1010 /"
1&"
0$"
b100 &
b100 B
b100 P
b100 U
b100 d
b100 z
0""
08
0D
1}
0#"
1%"
1)"
0+"
1[
b1000000001000 E
b1000000001000 Q
b1000000001000 W
15
b101001001010 c
b101001001010 -"
b101001001010 (
b101001001010 G
b101001001010 L
b1001010 #
b1001010 9
b1001010 e
b1001010 g
b1001010 x
b100000 V
0$
b10010 *
b10010 J
b10010 f
b10010 h
b10010 ."
1,
#320
0,
#325
0o
0k
b1010 `
b1010 j
b1010 v
b1010 1"
b1010 w
05"
09"
b1010 !
b1010 4
b1010 M
b1010 ]
b1010 ^
b1010 u
b1010 0"
b1010 3"
b1010 >"
bz _
bz 2"
1;
0=
b10 I
b10 \
b10 s
1@
1A
0C
1!"
1#"
0%"
0[
b11010000010 E
b11010000010 Q
b11010000010 W
05
b101001110010 c
b101001110010 -"
b101001110010 (
b101001110010 G
b101001110010 L
b1110010 #
b1110010 9
b1110010 e
b1110010 g
b1110010 x
b100001 V
1$
b10011 *
b10011 J
b10011 f
b10011 h
b10011 ."
1,
#330
0,
#335
b1001110010 c
b1001110010 -"
b1001110010 (
b1001110010 G
b1001110010 L
b10 %
b10 :
b10 b
b10 y
b10 /"
0&"
1$"
b111 &
b111 B
b111 P
b111 U
b111 d
b111 z
1""
b1010 _
b1010 2"
0;
1=
b0 I
b0 \
b0 s
0@
0A
1C
1[
b1000000001000 E
b1000000001000 Q
b1000000001000 W
15
b111000 V
0$
0l
b1010 )
b1010 H
b1010 a
b1010 i
b1010 t
0p
1,
#340
0,
#345
18
1D
0}
0#"
0[
b1000000111000 E
b1000000111000 Q
b1000000111000 W
05
b1000100010 c
b1000100010 -"
b1000100010 (
b1000100010 G
b1000100010 L
b100010 #
b100010 9
b100010 e
b100010 g
b100010 x
b111001 V
1$
b10100 *
b10100 J
b10100 f
b10100 h
b10100 ."
1,
#350
0,
